%YAML 1.1
%TAG !u! tag:unity3d.com,2011:
--- !u!114 &11400000
MonoBehaviour:
  m_ObjectHideFlags: 0
  m_CorrespondingSourceObject: {fileID: 0}
  m_PrefabInstance: {fileID: 0}
  m_PrefabAsset: {fileID: 0}
  m_GameObject: {fileID: 0}
  m_Enabled: 1
  m_EditorHideFlags: 0
  m_Script: {fileID: 11500000, guid: 67d0b65abe92dc040bfc8fee5502bf77, type: 3}
  m_Name: Gear_03
  m_EditorClassIdentifier: 
  gearImage: {fileID: 0}
  baseDefense: 0
  baseAttack: 0
  weight: 1
  cost: 1
